<?xml version="1.0" encoding="UTF-8" standalone="no"?>
<svg width="168px" height="58px" viewBox="0 0 168 58" version="1.1" xmlns="http://www.w3.org/2000/svg" xmlns:xlink="http://www.w3.org/1999/xlink">
    <!-- Generator: Sketch 50.2 (55047) - http://www.bohemiancoding.com/sketch -->
    <title>Dow</title>
    <desc>Created with Sketch.</desc>
    <defs></defs>
    <g id="Sindesperdicio_Website_FINAL" stroke="none" stroke-width="1" fill="none" fill-rule="evenodd">
        <g id="FINAL" transform="translate(-617.000000, -2189.000000)" fill="#FFFFFF">
            <g id="Group-10" transform="translate(608.000000, 2189.000000)">
                <g id="Dow" transform="translate(9.000000, 0.000000)">
                    <path d="M83.9501622,0 L0,28.9498001 L83.9501622,58 L168,28.9498001 L83.9501622,0 Z M83.9438764,54.2879489 L10.7218567,28.9342838 L83.9438764,3.58061876 L157.166794,28.9342838 L83.9438764,54.2879489 Z" id="Fill-2"></path>
                    <path d="M84.4995764,22 C79.2529094,22 75,25.8052656 75,30.4995629 C75,35.1938602 79.2529094,39 84.4995764,39 C89.7462434,39 94,35.1938602 94,30.4995629 C94,25.8052656 89.7462434,22 84.4995764,22 Z M84.4995764,35.4351314 C81.3810585,35.4351314 78.8530343,33.2252275 78.8530343,30.4995629 C78.8530343,27.7738983 81.3810585,25.5639944 84.4995764,25.5639944 C87.6180943,25.5639944 90.1469657,27.7738983 90.1469657,30.4995629 C90.1469657,33.2252275 87.6180943,35.4351314 84.4995764,35.4351314 Z" id="Fill-3"></path>
                    <path d="M62.1561323,18.0000516 L50.4968454,18.0000516 C49.9430656,17.9933214 49.8433671,18.6469931 50.4968454,18.6469931 C51.2001731,18.6469931 51.9542563,19.1130602 51.9542563,19.9997655 L51.9542563,33.7605224 C51.9542563,34.6934979 51.2001731,35.3471696 50.5466947,35.3471696 C49.7926115,35.3471696 49.8433671,36 50.5466947,36 L62.1561323,35.9941111 C67.5924198,35.9941111 72,31.9963659 72,26.9503905 C72,21.9044151 67.5924198,18.0000516 62.1561323,18.0000516 Z M61.7537129,32.6290057 L56.1751284,32.6416249 L56.1751284,21.3643157 L61.7537129,21.3643157 C65.1887795,21.3643157 67.9730868,23.7619532 67.9730868,26.9503905 C67.9730868,30.1379865 65.1887795,32.6290057 61.7537129,32.6290057 Z" id="Fill-4"></path>
                    <path d="M109.99941,28.5027282 L113.370506,36.8092011 C113.659681,37.5223135 113.419136,38.2868876 112.600243,38.2868876 C111.974133,38.2868876 112.021894,39 112.600243,39 L119.245176,39 C119.871286,39 119.822656,38.2868876 119.245176,38.2868876 C118.619065,38.2868876 118.282129,37.5223135 118.522674,36.8597438 L123.145123,24.8847855 C123.482059,24.0191258 124.011777,23.7131124 124.590126,23.7131124 C125.167607,23.7131124 125.119845,23 124.541496,23 L117.559628,23 C117.029909,23 117.029909,23.7131124 117.608258,23.7131124 C118.378521,23.7131124 119.100154,24.2231348 118.763218,25.0887944 L115.826318,32.6306932 L111.877741,23 L108.121947,23 L104.173371,32.6306932 L101.23647,25.0887944 C100.899534,24.2231348 101.621168,23.7131124 102.391431,23.7131124 C102.96978,23.7131124 102.96978,23 102.440061,23 L95.4581922,23 C94.8807118,23 94.8320819,23.7131124 95.4095623,23.7131124 C95.9879111,23.7131124 96.51763,24.0191258 96.854566,24.8847855 L101.477015,36.8597438 C101.717559,37.5223135 101.380623,38.2868876 100.754513,38.2868876 C100.177032,38.2868876 100.128402,39 100.754513,39 L107.399446,39 C107.977794,39 108.025556,38.2868876 107.399446,38.2868876 C106.581421,38.2868876 106.340008,37.5223135 106.629182,36.8092011 L109.99941,28.5027282" id="Fill-5"></path>
                </g>
            </g>
        </g>
    </g>
</svg>